// Evol scripts.
// Author:
//    Reid
// Description:
//    Librarian

001-2-4,51,35,2	script	Terry	NPC_TERRY,{
    mesn;
    mesq l("Hi.");
    close;

OnInit:
    .bodytype = BODYTYPE_3;
    .distance = 2;
    end;
}
