// Evol scripts.
// Author:
//    Micksha
// Description:
//    Richard the Hurns storage guy.
// THIS IS A PLACEHOLDER!

008-2-1,26,35,0	script	Richard#008-1	NPC_RICHARD_LEGACY,{
    speech
        l("Oh hey!"),
        l("I was supposed to act as storagekeeper, but I forgot my key.");
        lg("Come back later, perhaps I can find it.");

    close;

OnInit:
    .bodytype = BODYTYPE_3;
    .distance = 2;
    end;
}
