// Evol scripts.
// Author:
//    Micksha
// Description:
//    Aahna, a low quality NPC ;)
// TODO: Ask for random drops from Mana Bugs (daily quest)

012-1,99,64,0	script	Aahna	NPC_AAHNA,{
    speech
        l("Welcome."),
        l("I am looking at Mana Bugs. They always drop a bug leg, it is weird.");
    close;

OnInit:
    .bodytype = BODYTYPE_2;
    .distance = 4;
    end;
}
