// Evol scripts.
// Author:
//    Micksha
// Description:
//    Alan's Apprentice.
// THIS IS A PLACEHOLDER!

008-2-6,29,27,0	script	Donald	NPC_YOUNG_MAN_APPRENTICE,{
    speech
        l("Hi Sir."),
        l("Sorry, we are sold out for today."),
        lg("Come back later.");

    close;

OnInit:
    .bodytype = BODYTYPE_3;
    .distance = 2;
    end;
}
